GA/GA.sim/sim_1/behav/xsim/simulate.log
Vivado Simulator 2019.2
Time resolution is 1 ps
Initializing population memory directly in testbench...
--------------------------------------------------------------------------
| Time | Busy | Done | Iter | BestChr(hex) | BestFit | Perfect | DataOut |
--------------------------------------------------------------------------
0 |   0   |  0  |   0  |    0x0    |   0    |   0    | 0x0
Population initialized. Starting GA process...
550000000 |   1   |  0  |   0  |    0x0    |   0    |   0    | 0x0
950000000 |   1   |  0  |   0  |    0x7a52    |   8    |   0    | 0x7a52
2450000000 |   1   |  0  |   0  |    0x5555    |   10    |   0    | 0x5555
3950000000 |   1   |  0  |   0  |    0x0    |   11    |   0    | 0x0
7550000000 |   1   |  0  |   1  |    0x0    |   11    |   0    | 0x0
9550000000 |   1   |  0  |   2  |    0x0    |   11    |   0    | 0x0
11550000000 |   1   |  0  |   3  |    0x0    |   11    |   0    | 0x0
13550000000 |   1   |  0  |   4  |    0x0    |   11    |   0    | 0x0
15550000000 |   1   |  0  |   5  |    0x0    |   11    |   0    | 0x0
17550000000 |   1   |  0  |   6  |    0x0    |   11    |   0    | 0x0
19550000000 |   1   |  0  |   7  |    0x0    |   11    |   0    | 0x0
21550000000 |   1   |  0  |   8  |    0x0    |   11    |   0    | 0x0
23550000000 |   1   |  0  |   9  |    0x0    |   11    |   0    | 0x0
25550000000 |   1   |  0  |  10  |    0x0    |   11    |   0    | 0x0
27550000000 |   1   |  0  |  11  |    0x0    |   11    |   0    | 0x0
29550000000 |   1   |  0  |  12  |    0x0    |   11    |   0    | 0x0
31550000000 |   1   |  0  |  13  |    0x0    |   11    |   0    | 0x0
33550000000 |   1   |  0  |  14  |    0x0    |   11    |   0    | 0x0
35550000000 |   1   |  0  |  15  |    0x0    |   11    |   0    | 0x0
37550000000 |   1   |  0  |  16  |    0x0    |   11    |   0    | 0x0
39550000000 |   1   |  0  |  17  |    0x0    |   11    |   0    | 0x0
41550000000 |   1   |  0  |  18  |    0x0    |   11    |   0    | 0x0
43550000000 |   1   |  0  |  19  |    0x0    |   11    |   0    | 0x0
Done signal received. Testbench finished.
$stop called at time : 45550 us : File "D:/university/studies/FPGA/PJ_FPGA/GA_Genetic_algorithm/GA/GA.srcs/sim_1/imports/TB/GA_TOP_TB.sv" Line 251
45550000000 |   0   |  1  |  20  |    0x0    |   11    |   0    | 0x0
** GA Done at t=45650000000, iterations=20, best=0x0 fitness=11
$finish called at time : 45660 us : File "D:/university/studies/FPGA/PJ_FPGA/GA_Genetic_algorithm/GA/GA.srcs/sim_1/imports/TB/GA_TOP_TB.sv" Line 228
